Value,Frequency
641101,7.316188090416379E-8
186693,7.316188090416379E-8
446188,7.316188090416379E-8
547142,7.316188090416379E-8
482893,7.316188090416379E-8
484356,7.316188090416379E-8
84381,7.316188090416379E-8
349519,7.316188090416379E-8
725987,7.316188090416379E-8
503628,7.316188090416379E-8
507322,7.316188090416379E-8
516774,7.316188090416379E-8
638290,7.316188090416379E-8
565791,7.316188090416379E-8
209455,7.316188090416379E-8
554687,7.316188090416379E-8
290953,7.316188090416379E-8
657210,7.316188090416379E-8
476206,7.316188090416379E-8
61981,7.316188090416379E-8
393823,7.316188090416379E-8
354659,7.316188090416379E-8
621456,7.316188090416379E-8
16631,7.316188090416379E-8
85089,7.316188090416379E-8
17491,7.316188090416379E-8
427158,7.316188090416379E-8
641050,7.316188090416379E-8
696175,7.316188090416379E-8
542402,7.316188090416379E-8
494366,7.316188090416379E-8
688576,7.316188090416379E-8
677337,7.316188090416379E-8
389366,7.316188090416379E-8
186229,7.316188090416379E-8
69996,7.316188090416379E-8
170219,7.316188090416379E-8
100876,7.316188090416379E-8
613962,7.316188090416379E-8
642762,7.316188090416379E-8
100700,7.316188090416379E-8
536407,7.316188090416379E-8
606552,7.316188090416379E-8
347618,7.316188090416379E-8
200544,7.316188090416379E-8
246910,7.316188090416379E-8
641341,7.316188090416379E-8
659782,7.316188090416379E-8
110745,7.316188090416379E-8
332448,7.316188090416379E-8
466192,7.316188090416379E-8
100981,7.316188090416379E-8
507613,7.316188090416379E-8
369113,7.316188090416379E-8
378814,7.316188090416379E-8
539351,7.316188090416379E-8
445214,7.316188090416379E-8
186328,7.316188090416379E-8
88885,7.316188090416379E-8
113033,7.316188090416379E-8
416398,7.316188090416379E-8
511419,7.316188090416379E-8
276168,7.316188090416379E-8
55596,7.316188090416379E-8
659968,7.316188090416379E-8
504488,7.316188090416379E-8
678015,7.316188090416379E-8
611692,7.316188090416379E-8
154274,7.316188090416379E-8
184433,7.316188090416379E-8
356269,7.316188090416379E-8
694757,7.316188090416379E-8
600348,7.316188090416379E-8
290152,7.316188090416379E-8
200565,7.316188090416379E-8
369107,7.316188090416379E-8
629462,7.316188090416379E-8
194598,7.316188090416379E-8
217423,7.316188090416379E-8
389558,7.316188090416379E-8
350983,7.316188090416379E-8
458036,7.316188090416379E-8
193639,7.316188090416379E-8
697039,7.316188090416379E-8
611587,7.316188090416379E-8
88891,7.316188090416379E-8
493626,7.316188090416379E-8
592310,7.316188090416379E-8
387387,7.316188090416379E-8
175568,7.316188090416379E-8
91129,7.316188090416379E-8
237203,7.316188090416379E-8
616322,7.316188090416379E-8
593680,7.316188090416379E-8
166554,7.316188090416379E-8
742637,7.316188090416379E-8
100690,7.316188090416379E-8
531678,7.316188090416379E-8
381492,7.316188090416379E-8
582435,7.316188090416379E-8
