Value,Frequency
329079,3.0475540331330073E-6
113330,3.0475540331330073E-6
191468,3.0475540331330073E-6
153414,3.0475540331330073E-6
216190,3.0475540331330073E-6
217054,3.0475540331330073E-6
165690,3.0475540331330073E-6
67876,3.0475540331330073E-6
149941,3.0475540331330073E-6
84381,3.0475540331330073E-6
234984,3.0475540331330073E-6
445183,3.0475540331330073E-6
260024,3.0475540331330073E-6
183173,3.0475540331330073E-6
263955,3.0475540331330073E-6
434568,3.0475540331330073E-6
143029,3.0475540331330073E-6
388793,3.0475540331330073E-6
48165,3.0475540331330073E-6
21100,3.0475540331330073E-6
428678,3.0475540331330073E-6
354659,3.0475540331330073E-6
73766,3.0475540331330073E-6
434589,3.0475540331330073E-6
322570,3.0475540331330073E-6
409789,3.0475540331330073E-6
416429,3.0475540331330073E-6
48852,3.0475540331330073E-6
172444,3.0475540331330073E-6
28598,3.0475540331330073E-6
98385,3.0475540331330073E-6
29276,3.0475540331330073E-6
178033,3.0475540331330073E-6
258799,3.0475540331330073E-6
242520,3.0475540331330073E-6
303654,3.0475540331330073E-6
387273,3.0475540331330073E-6
88220,3.0475540331330073E-6
448272,3.0475540331330073E-6
300565,3.0475540331330073E-6
156169,3.0475540331330073E-6
437543,3.0475540331330073E-6
427023,3.0475540331330073E-6
427710,3.0475540331330073E-6
222188,3.0475540331330073E-6
9015,3.0475540331330073E-6
429242,3.0475540331330073E-6
393277,3.0475540331330073E-6
392599,3.0475540331330073E-6
204601,3.0475540331330073E-6
54736,3.0475540331330073E-6
66335,3.0475540331330073E-6
328219,3.0475540331330073E-6
409654,3.0475540331330073E-6
204049,3.0475540331330073E-6
146774,3.0475540331330073E-6
388137,3.0475540331330073E-6
250269,3.0475540331330073E-6
276168,3.0475540331330073E-6
452759,3.0475540331330073E-6
230489,3.0475540331330073E-6
206325,3.0475540331330073E-6
319684,3.0475540331330073E-6
94880,3.0475540331330073E-6
231053,3.0475540331330073E-6
196203,3.0475540331330073E-6
367493,3.0475540331330073E-6
260794,3.0475540331330073E-6
56961,3.0475540331330073E-6
428709,3.0475540331330073E-6
197063,3.0475540331330073E-6
357628,3.0475540331330073E-6
304404,3.0475540331330073E-6
231239,3.0475540331330073E-6
355904,3.0475540331330073E-6
148390,3.0475540331330073E-6
152664,3.0475540331330073E-6
29936,3.0475540331330073E-6
87470,3.0475540331330073E-6
368243,3.0475540331330073E-6
86115,3.0475540331330073E-6
295198,3.0475540331330073E-6
53986,3.0475540331330073E-6
431318,3.0475540331330073E-6
387387,3.0475540331330073E-6
445297,3.0475540331330073E-6
391739,3.0475540331330073E-6
280574,3.0475540331330073E-6
302976,3.0475540331330073E-6
428684,3.0475540331330073E-6
217720,3.0475540331330073E-6
166440,3.0475540331330073E-6
219465,3.0475540331330073E-6
242634,3.0475540331330073E-6
67882,3.0475540331330073E-6
214434,3.0475540331330073E-6
281132,3.0475540331330073E-6
301315,3.0475540331330073E-6
303540,3.0475540331330073E-6
433048,3.0475540331330073E-6
