Value,Frequency
563,0.001984126984126984
713,0.001984126984126984
458,0.001984126984126984
997,0.001984126984126984
686,0.001984126984126984
589,0.001984126984126984
941,0.001984126984126984
501,0.001984126984126984
881,0.001984126984126984
332,0.001984126984126984
929,0.001984126984126984
896,0.001984126984126984
985,0.001984126984126984
318,0.001984126984126984
475,0.001984126984126984
944,0.001984126984126984
920,0.001984126984126984
197,0.001984126984126984
329,0.001984126984126984
512,0.001984126984126984
602,0.001984126984126984
884,0.001984126984126984
617,0.001984126984126984
623,0.001984126984126984
776,0.001984126984126984
728,0.001984126984126984
865,0.001984126984126984
155,0.001984126984126984
635,0.001984126984126984
725,0.001984126984126984
772,0.001984126984126984
761,0.001984126984126984
784,0.001984126984126984
548,0.001984126984126984
500,0.001984126984126984
812,0.001984126984126984
196,0.001984126984126984
116,0.001984126984126984
956,0.001984126984126984
530,0.001984126984126984
188,0.001984126984126984
473,0.001984126984126984
707,0.001984126984126984
653,0.001984126984126984
248,0.001984126984126984
434,0.001984126984126984
586,0.001984126984126984
845,0.001984126984126984
431,0.001984126984126984
968,0.001984126984126984
386,0.001984126984126984
906,0.001984126984126984
815,0.001984126984126984
785,0.001984126984126984
656,0.001984126984126984
140,0.001984126984126984
878,0.001984126984126984
991,0.001984126984126984
394,0.001984126984126984
60,0.001984126984126984
647,0.001984126984126984
230,0.001984126984126984
764,0.001984126984126984
245,0.001984126984126984
950,0.001984126984126984
257,0.001984126984126984
53,0.001984126984126984
389,0.001984126984126984
694,0.001984126984126984
467,0.001984126984126984
293,0.001984126984126984
767,0.001984126984126984
326,0.001984126984126984
575,0.001984126984126984
600,0.001984126984126984
587,0.001984126984126984
277,0.001984126984126984
283,0.001984126984126984
338,0.001984126984126984
871,0.001984126984126984
685,0.001984126984126984
506,0.001984126984126984
807,0.001984126984126984
395,0.001984126984126984
446,0.001984126984126984
464,0.001984126984126984
818,0.001984126984126984
524,0.001984126984126984
569,0.001984126984126984
911,0.001984126984126984
953,0.001984126984126984
323,0.001984126984126984
839,0.001984126984126984
584,0.001984126984126984
566,0.001984126984126984
401,0.001984126984126984
671,0.001984126984126984
667,0.001984126984126984
749,0.001984126984126984
358,0.001984126984126984
