Value,Frequency
23,9.06357506807533E-5
24,7.791808605954088E-5
25,6.985759439820907E-5
26,6.0005882367692406E-5
27,4.9975048300257255E-5
28,4.35266549711918E-5
29,4.298928886043635E-5
30,3.600352942061544E-5
31,3.5645285346778475E-5
32,2.579357331626181E-5
34,2.5614451279343324E-5
33,2.47188410947509E-5
35,2.095727831946272E-5
36,1.9703424061033326E-5
37,1.7374837581093024E-5
38,1.6120983322663632E-5
45,1.2538542584293935E-5
40,1.2180298510456966E-5
39,1.0389078141272117E-5
41,9.672589993598178E-6
43,8.956101845924239E-6
46,8.060491661331816E-6
44,7.702247587494846E-6
48,7.344003513657876E-6
42,5.911027218309998E-6
47,5.731905181391513E-6
53,4.836294996799089E-6
55,4.657172959880604E-6
50,4.478050922962119E-6
49,4.478050922962119E-6
51,4.2989288860436345E-6
52,3.7615627752881804E-6
59,3.0450746276142414E-6
60,2.8659525906957566E-6
58,2.8659525906957566E-6
73,2.6868305537772718E-6
63,2.6868305537772718E-6
61,2.507708516858787E-6
64,2.507708516858787E-6
56,2.328586479940302E-6
54,2.328586479940302E-6
57,2.328586479940302E-6
68,2.1494644430218172E-6
70,1.970342406103333E-6
67,1.4329762953478783E-6
66,1.2538542584293935E-6
72,1.2538542584293935E-6
71,1.2538542584293935E-6
81,1.2538542584293935E-6
62,1.0747322215109086E-6
83,1.0747322215109086E-6
65,1.0747322215109086E-6
82,1.0747322215109086E-6
69,1.0747322215109086E-6
91,1.0747322215109086E-6
78,8.956101845924239E-7
79,8.956101845924239E-7
75,8.956101845924239E-7
74,8.956101845924239E-7
93,7.164881476739392E-7
77,7.164881476739392E-7
94,7.164881476739392E-7
87,7.164881476739392E-7
89,5.373661107554543E-7
100,5.373661107554543E-7
104,5.373661107554543E-7
90,5.373661107554543E-7
107,5.373661107554543E-7
99,5.373661107554543E-7
106,5.373661107554543E-7
86,5.373661107554543E-7
88,3.582440738369696E-7
141,3.582440738369696E-7
192,3.582440738369696E-7
111,3.582440738369696E-7
96,3.582440738369696E-7
101,3.582440738369696E-7
85,3.582440738369696E-7
98,1.791220369184848E-7
147,1.791220369184848E-7
84,1.791220369184848E-7
164,1.791220369184848E-7
103,1.791220369184848E-7
112,1.791220369184848E-7
76,1.791220369184848E-7
80,1.791220369184848E-7
140,1.791220369184848E-7
122,1.791220369184848E-7
145,1.791220369184848E-7
109,1.791220369184848E-7
187,1.791220369184848E-7
92,1.791220369184848E-7
125,1.791220369184848E-7
154,1.791220369184848E-7
97,1.791220369184848E-7
114,1.791220369184848E-7
129,1.791220369184848E-7
105,1.791220369184848E-7
150,1.791220369184848E-7
146,1.791220369184848E-7
