Value,Frequency
504098,1.087877433636213E-7
739181,1.087877433636213E-7
966304,1.087877433636213E-7
657708,1.087877433636213E-7
900731,1.087877433636213E-7
385048,1.087877433636213E-7
522148,1.087877433636213E-7
844550,1.087877433636213E-7
49602,1.087877433636213E-7
545673,1.087877433636213E-7
734342,1.087877433636213E-7
260024,1.087877433636213E-7
474592,1.087877433636213E-7
956581,1.087877433636213E-7
890770,1.087877433636213E-7
764095,1.087877433636213E-7
772255,1.087877433636213E-7
676587,1.087877433636213E-7
1065637,1.087877433636213E-7
806277,1.087877433636213E-7
508593,1.087877433636213E-7
165189,1.087877433636213E-7
901741,1.087877433636213E-7
416429,1.087877433636213E-7
863580,1.087877433636213E-7
460919,1.087877433636213E-7
465572,1.087877433636213E-7
452738,1.087877433636213E-7
212209,1.087877433636213E-7
882500,1.087877433636213E-7
129360,1.087877433636213E-7
170219,1.087877433636213E-7
850581,1.087877433636213E-7
321209,1.087877433636213E-7
387273,1.087877433636213E-7
533393,1.087877433636213E-7
719447,1.087877433636213E-7
693045,1.087877433636213E-7
427023,1.087877433636213E-7
716973,1.087877433636213E-7
339458,1.087877433636213E-7
847831,1.087877433636213E-7
833821,1.087877433636213E-7
1059066,1.087877433636213E-7
310950,1.087877433636213E-7
467182,1.087877433636213E-7
772141,1.087877433636213E-7
832421,1.087877433636213E-7
995203,1.087877433636213E-7
100981,1.087877433636213E-7
531783,1.087877433636213E-7
369113,1.087877433636213E-7
149800,1.087877433636213E-7
997775,1.087877433636213E-7
445214,1.087877433636213E-7
463353,1.087877433636213E-7
562292,1.087877433636213E-7
550672,1.087877433636213E-7
417289,1.087877433636213E-7
824306,1.087877433636213E-7
493512,1.087877433636213E-7
94880,1.087877433636213E-7
117219,1.087877433636213E-7
388002,1.087877433636213E-7
459073,1.087877433636213E-7
231053,1.087877433636213E-7
831857,1.087877433636213E-7
1022392,1.087877433636213E-7
492948,1.087877433636213E-7
56961,1.087877433636213E-7
754886,1.087877433636213E-7
1014632,1.087877433636213E-7
513617,1.087877433636213E-7
355904,1.087877433636213E-7
9816,1.087877433636213E-7
1058997,1.087877433636213E-7
723607,1.087877433636213E-7
180739,1.087877433636213E-7
35847,1.087877433636213E-7
600963,1.087877433636213E-7
682477,1.087877433636213E-7
53986,1.087877433636213E-7
967314,1.087877433636213E-7
387387,1.087877433636213E-7
513809,1.087877433636213E-7
472212,1.087877433636213E-7
603583,1.087877433636213E-7
66221,1.087877433636213E-7
85245,1.087877433636213E-7
225214,1.087877433636213E-7
792035,1.087877433636213E-7
993088,1.087877433636213E-7
91129,1.087877433636213E-7
604141,1.087877433636213E-7
441999,1.087877433636213E-7
262222,1.087877433636213E-7
466483,1.087877433636213E-7
993775,1.087877433636213E-7
768590,1.087877433636213E-7
214434,1.087877433636213E-7
