Value,Frequency
12751,1.5110076910291474E-5
21957,1.5110076910291474E-5
40316,1.5110076910291474E-5
62044,1.5110076910291474E-5
68746,1.5110076910291474E-5
55300,1.5110076910291474E-5
10532,1.5110076910291474E-5
31967,1.5110076910291474E-5
52790,1.5110076910291474E-5
49602,1.5110076910291474E-5
12136,1.5110076910291474E-5
43821,1.5110076910291474E-5
30306,1.5110076910291474E-5
38977,1.5110076910291474E-5
22515,1.5110076910291474E-5
12085,1.5110076910291474E-5
41431,1.5110076910291474E-5
25090,1.5110076910291474E-5
48165,1.5110076910291474E-5
10340,1.5110076910291474E-5
69855,1.5110076910291474E-5
470,1.5110076910291474E-5
61981,1.5110076910291474E-5
43149,1.5110076910291474E-5
26641,1.5110076910291474E-5
47650,1.5110076910291474E-5
16631,1.5110076910291474E-5
20350,1.5110076910291474E-5
776,1.5110076910291474E-5
58757,1.5110076910291474E-5
48852,1.5110076910291474E-5
67585,1.5110076910291474E-5
50565,1.5110076910291474E-5
26350,1.5110076910291474E-5
35661,1.5110076910291474E-5
8145,1.5110076910291474E-5
33946,1.5110076910291474E-5
58430,1.5110076910291474E-5
8655,1.5110076910291474E-5
22656,1.5110076910291474E-5
60461,1.5110076910291474E-5
24125,1.5110076910291474E-5
50451,1.5110076910291474E-5
8265,1.5110076910291474E-5
30630,1.5110076910291474E-5
9015,1.5110076910291474E-5
52670,1.5110076910291474E-5
60575,1.5110076910291474E-5
37265,1.5110076910291474E-5
47997,1.5110076910291474E-5
31676,1.5110076910291474E-5
32525,1.5110076910291474E-5
67075,1.5110076910291474E-5
31490,1.5110076910291474E-5
53831,1.5110076910291474E-5
49425,1.5110076910291474E-5
51930,1.5110076910291474E-5
13501,1.5110076910291474E-5
24932,1.5110076910291474E-5
24230,1.5110076910291474E-5
24926,1.5110076910291474E-5
32531,1.5110076910291474E-5
41176,1.5110076910291474E-5
30120,1.5110076910291474E-5
52976,1.5110076910291474E-5
44561,1.5110076910291474E-5
365,1.5110076910291474E-5
21771,1.5110076910291474E-5
27870,1.5110076910291474E-5
43260,1.5110076910291474E-5
15881,1.5110076910291474E-5
5525,1.5110076910291474E-5
31535,1.5110076910291474E-5
34510,1.5110076910291474E-5
62179,1.5110076910291474E-5
14547,1.5110076910291474E-5
30015,1.5110076910291474E-5
14730,1.5110076910291474E-5
44706,1.5110076910291474E-5
39847,1.5110076910291474E-5
9525,1.5110076910291474E-5
26536,1.5110076910291474E-5
29936,1.5110076910291474E-5
23261,1.5110076910291474E-5
23406,1.5110076910291474E-5
51810,1.5110076910291474E-5
35847,1.5110076910291474E-5
48186,1.5110076910291474E-5
53986,1.5110076910291474E-5
590,1.5110076910291474E-5
52280,1.5110076910291474E-5
66221,1.5110076910291474E-5
30921,1.5110076910291474E-5
5333,1.5110076910291474E-5
3114,1.5110076910291474E-5
61180,1.5110076910291474E-5
47305,1.5110076910291474E-5
67882,1.5110076910291474E-5
15111,1.5110076910291474E-5
14922,1.5110076910291474E-5
