Value,Frequency
408134,9.995581952776873E-7
72906,9.995581952776873E-7
739181,9.995581952776873E-7
506213,9.995581952776873E-7
657708,9.995581952776873E-7
216190,9.995581952776873E-7
181635,9.995581952776873E-7
184610,9.995581952776873E-7
165690,9.995581952776873E-7
733778,9.995581952776873E-7
205575,9.995581952776873E-7
772396,9.995581952776873E-7
986230,9.995581952776873E-7
66356,9.995581952776873E-7
295858,9.995581952776873E-7
210595,9.995581952776873E-7
384298,9.995581952776873E-7
734342,9.995581952776873E-7
783671,9.995581952776873E-7
349333,9.995581952776873E-7
764095,9.995581952776873E-7
143029,9.995581952776873E-7
939890,9.995581952776873E-7
752506,9.995581952776873E-7
354659,9.995581952776873E-7
447412,9.995581952776873E-7
1011798,9.995581952776873E-7
322570,9.995581952776873E-7
409789,9.995581952776873E-7
465572,9.995581952776873E-7
1004253,9.995581952776873E-7
29276,9.995581952776873E-7
598907,9.995581952776873E-7
348769,9.995581952776873E-7
669978,9.995581952776873E-7
258799,9.995581952776873E-7
1010803,9.995581952776873E-7
956695,9.995581952776873E-7
816011,9.995581952776873E-7
295879,9.995581952776873E-7
693045,9.995581952776873E-7
156169,9.995581952776873E-7
824120,9.995581952776873E-7
427710,9.995581952776873E-7
715447,9.995581952776873E-7
8265,9.995581952776873E-7
126416,9.995581952776873E-7
6535,9.995581952776873E-7
1049176,9.995581952776873E-7
601203,9.995581952776873E-7
393277,9.995581952776873E-7
541178,9.995581952776873E-7
531783,9.995581952776873E-7
439303,9.995581952776873E-7
328219,9.995581952776873E-7
974199,9.995581952776873E-7
445214,9.995581952776873E-7
463353,9.995581952776873E-7
236084,9.995581952776873E-7
973204,9.995581952776873E-7
146774,9.995581952776873E-7
654427,9.995581952776873E-7
1055066,9.995581952776873E-7
603422,9.995581952776873E-7
230489,9.995581952776873E-7
770645,9.995581952776873E-7
465764,9.995581952776873E-7
241108,9.995581952776873E-7
765511,9.995581952776873E-7
895696,9.995581952776873E-7
231053,9.995581952776873E-7
784541,9.995581952776873E-7
464217,9.995581952776873E-7
550703,9.995581952776873E-7
770858,9.995581952776873E-7
741887,9.995581952776873E-7
87470,9.995581952776873E-7
659266,9.995581952776873E-7
295198,9.995581952776873E-7
973225,9.995581952776873E-7
53986,9.995581952776873E-7
728566,9.995581952776873E-7
976970,9.995581952776873E-7
445297,9.995581952776873E-7
877536,9.995581952776873E-7
79361,9.995581952776873E-7
500618,9.995581952776873E-7
668131,9.995581952776873E-7
1043531,9.995581952776873E-7
524373,9.995581952776873E-7
958810,9.995581952776873E-7
321023,9.995581952776873E-7
496081,9.995581952776873E-7
1001278,9.995581952776873E-7
433708,9.995581952776873E-7
242634,9.995581952776873E-7
213876,9.995581952776873E-7
146118,9.995581952776873E-7
433048,9.995581952776873E-7
842280,9.995581952776873E-7
